[
  { "page": 1,
    "per_page": 3,
    "total": 12,
    "total_pages": 4,
    "author":{
      "first_name": "Aziz",
      "last_name":"Khan"
    },
    "data": [
      {
        "id": 1,
        "first_name": "George",
        "last_name": "Bluth",
        "avatar": "https://images.unsplash.com/photo-1496440737103-cd596325d314?ixid=MnwxMjA3fDB8MHxwaG90by1wYWdlfHx8fGVufDB8fHx8&ixlib=rb-1.2.1&auto=format&fit=crop&w=1868&q=80",
        "images": [
          {
            "id" : 122,
            "imageName": "Image1"
          },
          {
            "id" : 152,
            "imageName": "Image2"
          }
        ]

      },
      {
        "id": 2,
        "first_name": "Janet",
        "last_name": "Weaver",
        "avatar": "https://images.unsplash.com/photo-1604004555489-723a93d6ce74?ixid=MnwxMjA3fDB8MHxwaG90by1wYWdlfHx8fGVufDB8fHx8&ixlib=rb-1.2.1&auto=format&fit=crop&w=334&q=80",
        "images": [
          {
            "id" : 122,
            "imageName": "Image1"
          },
          {
            "id" : 152,
            "imageName": "Image2"
          }
        ]
      },
      {
        "id": 3,
        "first_name": "Emma",
        "last_name": "Wong",
        "avatar": "https://images.unsplash.com/photo-1545912452-8aea7e25a3d3?ixid=MnwxMjA3fDB8MHxwaG90by1wYWdlfHx8fGVufDB8fHx8&ixlib=rb-1.2.1&auto=format&fit=crop&w=334&q=80",
        "images": [
          {
            "id" : 122,
            "imageName": "Image1"
          },
          {
            "id" : 152,
            "imageName": "Image2"
          }
        ]
      }
    ]
  },
  { "page": 2,
    "per_page": 3,
    "total": 12,
    "total_pages": 4,
    "author":{
      "first_name": "Aziz",
      "last_name":"Khan"
    },
    "data": [
      {
        "id": 1,
        "first_name": "George",
        "last_name": "Bluth",
        "avatar": "https://images.unsplash.com/photo-1496440737103-cd596325d314?ixid=MnwxMjA3fDB8MHxwaG90by1wYWdlfHx8fGVufDB8fHx8&ixlib=rb-1.2.1&auto=format&fit=crop&w=1868&q=80",
        "images": [
          {
            "id" : 122,
            "imageName": "Image1"
          },
          {
            "id" : 152,
            "imageName": "Image2"
          }
        ]

      },
      {
        "id": 2,
        "first_name": "Janet",
        "last_name": "Weaver",
        "avatar": "https://images.unsplash.com/photo-1604004555489-723a93d6ce74?ixid=MnwxMjA3fDB8MHxwaG90by1wYWdlfHx8fGVufDB8fHx8&ixlib=rb-1.2.1&auto=format&fit=crop&w=334&q=80",
        "images": [
          {
            "id" : 122,
            "imageName": "Image1"
          },
          {
            "id" : 152,
            "imageName": "Image2"
          }
        ]
      },
      {
        "id": 3,
        "first_name": "Emma",
        "last_name": "Wong",
        "avatar": "https://images.unsplash.com/photo-1545912452-8aea7e25a3d3?ixid=MnwxMjA3fDB8MHxwaG90by1wYWdlfHx8fGVufDB8fHx8&ixlib=rb-1.2.1&auto=format&fit=crop&w=334&q=80",
        "images": [
          {
            "id" : 122,
            "imageName": "Image1"
          },
          {
            "id" : 152,
            "imageName": "Image2"
          }
        ]
      }
    ]
  },
  { "page": 3,
    "per_page": 3,
    "total": 12,
    "total_pages": 4,
    "author":{
      "first_name": "Aziz",
      "last_name":"Khan"
    },
    "data": [
      {
        "id": 1,
        "first_name": "George",
        "last_name": "Bluth",
        "avatar": "https://images.unsplash.com/photo-1496440737103-cd596325d314?ixid=MnwxMjA3fDB8MHxwaG90by1wYWdlfHx8fGVufDB8fHx8&ixlib=rb-1.2.1&auto=format&fit=crop&w=1868&q=80",
        "images": [
          {
            "id" : 122,
            "imageName": "Image1"
          },
          {
            "id" : 152,
            "imageName": "Image2"
          }
        ]

      },
      {
        "id": 2,
        "first_name": "Janet",
        "last_name": "Weaver",
        "avatar": "https://images.unsplash.com/photo-1604004555489-723a93d6ce74?ixid=MnwxMjA3fDB8MHxwaG90by1wYWdlfHx8fGVufDB8fHx8&ixlib=rb-1.2.1&auto=format&fit=crop&w=334&q=80",
        "images": [
          {
            "id" : 122,
            "imageName": "Image1"
          },
          {
            "id" : 152,
            "imageName": "Image2"
          }
        ]
      },
      {
        "id": 3,
        "first_name": "Emma",
        "last_name": "Wong",
        "avatar": "https://images.unsplash.com/photo-1545912452-8aea7e25a3d3?ixid=MnwxMjA3fDB8MHxwaG90by1wYWdlfHx8fGVufDB8fHx8&ixlib=rb-1.2.1&auto=format&fit=crop&w=334&q=80",
        "images": [
          {
            "id" : 122,
            "imageName": "Image1"
          },
          {
            "id" : 152,
            "imageName": "Image2"
          }
        ]
      }
    ]
  }
]